
            <div class="f-line">
                <div class="f-campo">

                    <div class="bl-10">
                        <label for="proyecto_nombre">nombre proyecto archivo 1:</label> 
                    </div>
                     

                    <div class="f-campo">                    

                        <div class="bl-4">
                            <div>
                                <a id="btn_enviar"                            
                                   href="javascript:void(0);">
                                   Enviar
                                </a>                        
                            </div> 
                        </div>

                        <div class="bl-24">                        
                            <input type="file" 
                                   name="file" 
                                   style="border-bottom-width: 0px;     height: 24px;"
                                   id="migracion_file">                
                        </div>

                    </div>
                    
                    
                </div>    
            </div>  